12718970 invoke-virtual
12391920 move-result
8157468 const
8062226 iget
5503780 move
5288420 if
5200603 const-string
4533934 invoke-direct
3833347 invoke-static
3389122 iput
3263902 goto
2900269 new-instance
2683104 return-void
2451011 binop
2166727 return
1864219 aput
1792583 sget
1761883 invoke-interface
1055790 check-cast
 761554 move-exception
 734425 aget
 607269 sput
 557610 new-array
 530779 unop
 521299 throw
 287310 monitor-exit
 263662 array-length
 215434 invoke-super
 189789 cmp
 182077 const-class
 144576 instance-of
 134466 monitor-enter
  97906 fill-array-data
  86468 packed-switch
  56951 nop
  21149 sparse-switch
   1930 filled-new-array
